<svg width="12" height="14" viewBox="0 0 12 14" fill="none" xmlns="http://www.w3.org/2000/svg">
<path d="M6 0C3.05067 0 0 2.0548 0 5.49432C0 8.68565 4.97267 13.3075 5.54 13.8242C5.66399 13.9371 5.82871 14 6 14C6.17129 14 6.33601 13.9371 6.46 13.8242C7.02733 13.3075 12 8.68565 12 5.49432C12 2.0548 8.94933 0 6 0ZM6 6.99994C5.73629 6.99994 5.4785 6.9253 5.25924 6.78545C5.03997 6.6456 4.86908 6.44683 4.76816 6.21427C4.66724 5.98171 4.64084 5.72581 4.69229 5.47893C4.74373 5.23204 4.87072 5.00527 5.05719 4.82728C5.24366 4.64928 5.48124 4.52807 5.73988 4.47896C5.99852 4.42985 6.26661 4.45506 6.51024 4.55139C6.75388 4.64772 6.96212 4.81084 7.10863 5.02014C7.25514 5.22944 7.33333 5.4755 7.33333 5.72722C7.33333 6.06477 7.19286 6.38849 6.94281 6.62717C6.69276 6.86585 6.35362 6.99994 6 6.99994Z" fill="#3686FF"/>
</svg>
